<sdf version="1.6">
  <world name="default">
    
    <gui>
      <camera name="user_camera">
        <pose>9.4 -74 13.8 0 0.06 2.16</pose>
      </camera>
    </gui>

	<!-- Enable sky and clouds -->
	<scene>
	  <sky>
	    <clouds>
	      <speed>12</speed>
	    </clouds>
	  </sky>
	</scene>

  <!-- Martian sky 
	<scene>
	  <background>217 150 108 1</background>
	</scene>
  -->

    <!-- A global light source -->
    <include>
      <uri>model://sun</uri>
    </include>

    <include>
      <pose>0 0 3.0 0 0 0</pose>
      <uri>model://pangaea_field</uri>
    </include>    

    <model name="ground_plane">
      <static>true</static>
      <link name="link">
        <collision name="collision">
          <geometry>
            <plane>
              <normal>0 0 1</normal>
              <size>400 300</size>
            </plane>
          </geometry>
          <surface>
            <friction>
              <ode>
                <mu>1</mu>
                <mu2>1</mu2>
              </ode>
            </friction>
          </surface>
        </collision>
      </link>
    </model>

  </world>
</sdf>
